{
  "version": "1.0.0-*",

  "dependencies": {
    "NETStandard.Library": "1.6.0",
    "System.ComponentModel.Annotations": "4.3.0",
    "System.ComponentModel.Primitives": "4.3.0"
  },

  "frameworks": {
    "netstandard1.6": {
      "imports": "dnxcore50"
    }
  }
}
